swing_time  1.667962 opt end 
thrust1  -0.324774 opt end 
swing_hip_target  0.248064 opt end 
swing_hv1  0.128430 opt end 
swing_ha1  -0.037106 opt end 
swing_knee1  -0.180450 opt end 
swing_kv1  0.201234 opt end 
swing_ka1  -0.024522 opt end 
swing_knee_target  -0.523400 opt end 
swing_kv2  -0.232451 opt end 
swing_ka2  -0.132686 opt end 
stance_hip_target  0.373265 opt end 
stance_hv1  -0.277726 opt end 
stance_ha1  0.502898 opt end 
pitch_d  -0.041344 opt end 
stance_kv1  0.608995 opt end 
stance_ka1  -0.491305 opt end 
stance_knee_target  0.052485 opt end 
stance_kv2  -0.061333 opt end 
stance_ka2  -0.000630 opt end 
stance_ankle_torque  0.114815 opt end 
